%YAML 1.1
%TAG !u! tag:unity3d.com,2011:
--- !u!74 &7400000
AnimationClip:
  m_ObjectHideFlags: 0
  m_CorrespondingSourceObject: {fileID: 0}
  m_PrefabInstance: {fileID: 0}
  m_PrefabAsset: {fileID: 0}
  m_Name: Gnome Hop
  serializedVersion: 6
  m_Legacy: 0
  m_Compressed: 0
  m_UseHighQualityCurve: 1
  m_RotationCurves: []
  m_CompressedRotationCurves: []
  m_EulerCurves: []
  m_PositionCurves: []
  m_ScaleCurves: []
  m_FloatCurves: []
  m_PPtrCurves:
  - curve:
    - time: 0
      value: {fileID: 8532853575984537022, guid: 27c502f9c6811a9419f397da0c01e08d,
        type: 3}
    - time: 0.05
      value: {fileID: -5672886484280828777, guid: 27c502f9c6811a9419f397da0c01e08d,
        type: 3}
    - time: 0.1
      value: {fileID: 657327705973076454, guid: 27c502f9c6811a9419f397da0c01e08d,
        type: 3}
    - time: 0.15
      value: {fileID: 2316559351308807121, guid: 27c502f9c6811a9419f397da0c01e08d,
        type: 3}
    - time: 0.2
      value: {fileID: 259241948786745635, guid: 27c502f9c6811a9419f397da0c01e08d,
        type: 3}
    - time: 0.25
      value: {fileID: -5187855032976046438, guid: 27c502f9c6811a9419f397da0c01e08d,
        type: 3}
    - time: 0.3
      value: {fileID: -2024161416504286770, guid: 27c502f9c6811a9419f397da0c01e08d,
        type: 3}
    - time: 0.35
      value: {fileID: -7122400225289531641, guid: 27c502f9c6811a9419f397da0c01e08d,
        type: 3}
    - time: 0.4
      value: {fileID: 7012729498918721938, guid: 27c502f9c6811a9419f397da0c01e08d,
        type: 3}
    - time: 0.45
      value: {fileID: 471822915718253400, guid: 27c502f9c6811a9419f397da0c01e08d,
        type: 3}
    - time: 0.5
      value: {fileID: -7122136188106420382, guid: 27c502f9c6811a9419f397da0c01e08d,
        type: 3}
    - time: 0.55
      value: {fileID: -1414849632348080125, guid: 27c502f9c6811a9419f397da0c01e08d,
        type: 3}
    - time: 0.6
      value: {fileID: 8532853575984537022, guid: 27c502f9c6811a9419f397da0c01e08d,
        type: 3}
    - time: 0.65
      value: {fileID: -5672886484280828777, guid: 27c502f9c6811a9419f397da0c01e08d,
        type: 3}
    - time: 0.7
      value: {fileID: 657327705973076454, guid: 27c502f9c6811a9419f397da0c01e08d,
        type: 3}
    - time: 0.75
      value: {fileID: 2316559351308807121, guid: 27c502f9c6811a9419f397da0c01e08d,
        type: 3}
    - time: 0.8
      value: {fileID: 259241948786745635, guid: 27c502f9c6811a9419f397da0c01e08d,
        type: 3}
    - time: 0.85
      value: {fileID: -5187855032976046438, guid: 27c502f9c6811a9419f397da0c01e08d,
        type: 3}
    - time: 0.9
      value: {fileID: -2024161416504286770, guid: 27c502f9c6811a9419f397da0c01e08d,
        type: 3}
    - time: 0.95
      value: {fileID: -7122400225289531641, guid: 27c502f9c6811a9419f397da0c01e08d,
        type: 3}
    - time: 1
      value: {fileID: 7012729498918721938, guid: 27c502f9c6811a9419f397da0c01e08d,
        type: 3}
    - time: 1.05
      value: {fileID: 471822915718253400, guid: 27c502f9c6811a9419f397da0c01e08d,
        type: 3}
    - time: 1.1
      value: {fileID: -7122136188106420382, guid: 27c502f9c6811a9419f397da0c01e08d,
        type: 3}
    - time: 1.15
      value: {fileID: -1414849632348080125, guid: 27c502f9c6811a9419f397da0c01e08d,
        type: 3}
    attribute: m_Sprite
    path: Body
    classID: 212
    script: {fileID: 0}
  m_SampleRate: 20
  m_WrapMode: 0
  m_Bounds:
    m_Center: {x: 0, y: 0, z: 0}
    m_Extent: {x: 0, y: 0, z: 0}
  m_ClipBindingConstant:
    genericBindings:
    - serializedVersion: 2
      path: 2073732236
      attribute: 0
      script: {fileID: 0}
      typeID: 212
      customType: 23
      isPPtrCurve: 1
    pptrCurveMapping:
    - {fileID: 8532853575984537022, guid: 27c502f9c6811a9419f397da0c01e08d, type: 3}
    - {fileID: -5672886484280828777, guid: 27c502f9c6811a9419f397da0c01e08d, type: 3}
    - {fileID: 657327705973076454, guid: 27c502f9c6811a9419f397da0c01e08d, type: 3}
    - {fileID: 2316559351308807121, guid: 27c502f9c6811a9419f397da0c01e08d, type: 3}
    - {fileID: 259241948786745635, guid: 27c502f9c6811a9419f397da0c01e08d, type: 3}
    - {fileID: -5187855032976046438, guid: 27c502f9c6811a9419f397da0c01e08d, type: 3}
    - {fileID: -2024161416504286770, guid: 27c502f9c6811a9419f397da0c01e08d, type: 3}
    - {fileID: -7122400225289531641, guid: 27c502f9c6811a9419f397da0c01e08d, type: 3}
    - {fileID: 7012729498918721938, guid: 27c502f9c6811a9419f397da0c01e08d, type: 3}
    - {fileID: 471822915718253400, guid: 27c502f9c6811a9419f397da0c01e08d, type: 3}
    - {fileID: -7122136188106420382, guid: 27c502f9c6811a9419f397da0c01e08d, type: 3}
    - {fileID: -1414849632348080125, guid: 27c502f9c6811a9419f397da0c01e08d, type: 3}
    - {fileID: 8532853575984537022, guid: 27c502f9c6811a9419f397da0c01e08d, type: 3}
    - {fileID: -5672886484280828777, guid: 27c502f9c6811a9419f397da0c01e08d, type: 3}
    - {fileID: 657327705973076454, guid: 27c502f9c6811a9419f397da0c01e08d, type: 3}
    - {fileID: 2316559351308807121, guid: 27c502f9c6811a9419f397da0c01e08d, type: 3}
    - {fileID: 259241948786745635, guid: 27c502f9c6811a9419f397da0c01e08d, type: 3}
    - {fileID: -5187855032976046438, guid: 27c502f9c6811a9419f397da0c01e08d, type: 3}
    - {fileID: -2024161416504286770, guid: 27c502f9c6811a9419f397da0c01e08d, type: 3}
    - {fileID: -7122400225289531641, guid: 27c502f9c6811a9419f397da0c01e08d, type: 3}
    - {fileID: 7012729498918721938, guid: 27c502f9c6811a9419f397da0c01e08d, type: 3}
    - {fileID: 471822915718253400, guid: 27c502f9c6811a9419f397da0c01e08d, type: 3}
    - {fileID: -7122136188106420382, guid: 27c502f9c6811a9419f397da0c01e08d, type: 3}
    - {fileID: -1414849632348080125, guid: 27c502f9c6811a9419f397da0c01e08d, type: 3}
  m_AnimationClipSettings:
    serializedVersion: 2
    m_AdditiveReferencePoseClip: {fileID: 0}
    m_AdditiveReferencePoseTime: 0
    m_StartTime: 0
    m_StopTime: 1.1999999
    m_OrientationOffsetY: 0
    m_Level: 0
    m_CycleOffset: 0
    m_HasAdditiveReferencePose: 0
    m_LoopTime: 1
    m_LoopBlend: 0
    m_LoopBlendOrientation: 0
    m_LoopBlendPositionY: 0
    m_LoopBlendPositionXZ: 0
    m_KeepOriginalOrientation: 0
    m_KeepOriginalPositionY: 1
    m_KeepOriginalPositionXZ: 0
    m_HeightFromFeet: 0
    m_Mirror: 0
  m_EditorCurves: []
  m_EulerEditorCurves: []
  m_HasGenericRootTransform: 0
  m_HasMotionFloatCurves: 0
  m_Events:
  - time: 0.3
    functionName: Fire
    data: 
    objectReferenceParameter: {fileID: 0}
    floatParameter: 0
    intParameter: 0
    messageOptions: 0
