%YAML 1.1
%TAG !u! tag:unity3d.com,2011:
--- !u!74 &7400000
AnimationClip:
  m_ObjectHideFlags: 0
  m_CorrespondingSourceObject: {fileID: 0}
  m_PrefabInstance: {fileID: 0}
  m_PrefabAsset: {fileID: 0}
  m_Name: Lizard Attack
  serializedVersion: 6
  m_Legacy: 0
  m_Compressed: 0
  m_UseHighQualityCurve: 1
  m_RotationCurves: []
  m_CompressedRotationCurves: []
  m_EulerCurves: []
  m_PositionCurves: []
  m_ScaleCurves: []
  m_FloatCurves: []
  m_PPtrCurves:
  - curve:
    - time: 0
      value: {fileID: -3340233067479159950, guid: cd733938e142d514bb3ee6e6364f1362,
        type: 3}
    - time: 0.041666668
      value: {fileID: -3973701328654710892, guid: cd733938e142d514bb3ee6e6364f1362,
        type: 3}
    - time: 0.083333336
      value: {fileID: 7460013834076210185, guid: cd733938e142d514bb3ee6e6364f1362,
        type: 3}
    - time: 0.125
      value: {fileID: 3617570274085136561, guid: cd733938e142d514bb3ee6e6364f1362,
        type: 3}
    - time: 0.16666667
      value: {fileID: -723404634819465821, guid: cd733938e142d514bb3ee6e6364f1362,
        type: 3}
    - time: 0.20833333
      value: {fileID: 6916213579619569285, guid: cd733938e142d514bb3ee6e6364f1362,
        type: 3}
    - time: 0.25
      value: {fileID: 194356909083271977, guid: cd733938e142d514bb3ee6e6364f1362,
        type: 3}
    - time: 0.29166666
      value: {fileID: 5864936328320449481, guid: cd733938e142d514bb3ee6e6364f1362,
        type: 3}
    - time: 0.33333334
      value: {fileID: -9164311563850487235, guid: cd733938e142d514bb3ee6e6364f1362,
        type: 3}
    - time: 0.375
      value: {fileID: -5099081048025030643, guid: cd733938e142d514bb3ee6e6364f1362,
        type: 3}
    - time: 0.41666666
      value: {fileID: 5537919864947286379, guid: cd733938e142d514bb3ee6e6364f1362,
        type: 3}
    - time: 0.45833334
      value: {fileID: 6624424256340238522, guid: cd733938e142d514bb3ee6e6364f1362,
        type: 3}
    - time: 0.5
      value: {fileID: -359627748026061233, guid: cd733938e142d514bb3ee6e6364f1362,
        type: 3}
    - time: 0.5416667
      value: {fileID: -8887494398126645591, guid: cd733938e142d514bb3ee6e6364f1362,
        type: 3}
    - time: 0.5833333
      value: {fileID: 7006078195028664680, guid: cd733938e142d514bb3ee6e6364f1362,
        type: 3}
    - time: 0.625
      value: {fileID: -1356629129952778962, guid: cd733938e142d514bb3ee6e6364f1362,
        type: 3}
    - time: 0.6666667
      value: {fileID: 8295359217853608003, guid: cd733938e142d514bb3ee6e6364f1362,
        type: 3}
    - time: 0.7083333
      value: {fileID: -6131910708691679955, guid: cd733938e142d514bb3ee6e6364f1362,
        type: 3}
    - time: 0.75
      value: {fileID: 552055520336269921, guid: cd733938e142d514bb3ee6e6364f1362,
        type: 3}
    - time: 0.7916667
      value: {fileID: 8058351056531653618, guid: cd733938e142d514bb3ee6e6364f1362,
        type: 3}
    - time: 0.8333333
      value: {fileID: 1700631915826854273, guid: cd733938e142d514bb3ee6e6364f1362,
        type: 3}
    - time: 0.875
      value: {fileID: -2962686900436319612, guid: cd733938e142d514bb3ee6e6364f1362,
        type: 3}
    - time: 0.9166667
      value: {fileID: -5889518422000451267, guid: cd733938e142d514bb3ee6e6364f1362,
        type: 3}
    - time: 0.9583333
      value: {fileID: 7998882612465903966, guid: cd733938e142d514bb3ee6e6364f1362,
        type: 3}
    - time: 1
      value: {fileID: -3969949779018097958, guid: cd733938e142d514bb3ee6e6364f1362,
        type: 3}
    - time: 1.0416666
      value: {fileID: -8203119235108878569, guid: cd733938e142d514bb3ee6e6364f1362,
        type: 3}
    - time: 1.0833334
      value: {fileID: -7450644094000235110, guid: cd733938e142d514bb3ee6e6364f1362,
        type: 3}
    - time: 1.125
      value: {fileID: 1090578872040889171, guid: cd733938e142d514bb3ee6e6364f1362,
        type: 3}
    - time: 1.1666666
      value: {fileID: -3231794851537249288, guid: cd733938e142d514bb3ee6e6364f1362,
        type: 3}
    - time: 1.2083334
      value: {fileID: 6543109952153106319, guid: cd733938e142d514bb3ee6e6364f1362,
        type: 3}
    - time: 1.25
      value: {fileID: -559683021808790752, guid: cd733938e142d514bb3ee6e6364f1362,
        type: 3}
    - time: 1.2916666
      value: {fileID: -7189123841070871123, guid: cd733938e142d514bb3ee6e6364f1362,
        type: 3}
    - time: 1.3333334
      value: {fileID: -4150084752782451529, guid: cd733938e142d514bb3ee6e6364f1362,
        type: 3}
    - time: 1.375
      value: {fileID: 7953293416334195047, guid: cd733938e142d514bb3ee6e6364f1362,
        type: 3}
    - time: 1.4166666
      value: {fileID: -5173281111964905524, guid: cd733938e142d514bb3ee6e6364f1362,
        type: 3}
    - time: 1.4583334
      value: {fileID: -8791214569530535495, guid: cd733938e142d514bb3ee6e6364f1362,
        type: 3}
    - time: 1.5
      value: {fileID: 2424690637353557625, guid: cd733938e142d514bb3ee6e6364f1362,
        type: 3}
    - time: 1.5416666
      value: {fileID: -860907419282037124, guid: cd733938e142d514bb3ee6e6364f1362,
        type: 3}
    - time: 1.5833334
      value: {fileID: -3893218274441486823, guid: cd733938e142d514bb3ee6e6364f1362,
        type: 3}
    - time: 1.625
      value: {fileID: -2522337004360429907, guid: cd733938e142d514bb3ee6e6364f1362,
        type: 3}
    - time: 1.6666666
      value: {fileID: -2904953644048260341, guid: cd733938e142d514bb3ee6e6364f1362,
        type: 3}
    - time: 1.7083334
      value: {fileID: -1627432884647786759, guid: cd733938e142d514bb3ee6e6364f1362,
        type: 3}
    - time: 1.75
      value: {fileID: -5364742938498592456, guid: cd733938e142d514bb3ee6e6364f1362,
        type: 3}
    - time: 1.7916666
      value: {fileID: -2910702123271436369, guid: cd733938e142d514bb3ee6e6364f1362,
        type: 3}
    - time: 1.8333334
      value: {fileID: -612112408011298337, guid: cd733938e142d514bb3ee6e6364f1362,
        type: 3}
    - time: 1.875
      value: {fileID: 8574535695255557858, guid: cd733938e142d514bb3ee6e6364f1362,
        type: 3}
    - time: 1.9166666
      value: {fileID: 2076566718247255247, guid: cd733938e142d514bb3ee6e6364f1362,
        type: 3}
    - time: 1.9583334
      value: {fileID: -3227790618158858614, guid: cd733938e142d514bb3ee6e6364f1362,
        type: 3}
    - time: 2
      value: {fileID: 1764238319824030632, guid: cd733938e142d514bb3ee6e6364f1362,
        type: 3}
    - time: 2.0416667
      value: {fileID: 863045585016818970, guid: cd733938e142d514bb3ee6e6364f1362,
        type: 3}
    - time: 2.0833333
      value: {fileID: 4527178231594079772, guid: cd733938e142d514bb3ee6e6364f1362,
        type: 3}
    - time: 2.125
      value: {fileID: 5543491491057938867, guid: cd733938e142d514bb3ee6e6364f1362,
        type: 3}
    - time: 2.1666667
      value: {fileID: 6963352758802786794, guid: cd733938e142d514bb3ee6e6364f1362,
        type: 3}
    - time: 2.2083333
      value: {fileID: 8516106951271197370, guid: cd733938e142d514bb3ee6e6364f1362,
        type: 3}
    - time: 2.25
      value: {fileID: 916259748796442713, guid: cd733938e142d514bb3ee6e6364f1362,
        type: 3}
    - time: 2.2916667
      value: {fileID: 9155745486195939629, guid: cd733938e142d514bb3ee6e6364f1362,
        type: 3}
    - time: 2.3333333
      value: {fileID: -5604277894892616984, guid: cd733938e142d514bb3ee6e6364f1362,
        type: 3}
    - time: 2.375
      value: {fileID: 1249685852213211978, guid: cd733938e142d514bb3ee6e6364f1362,
        type: 3}
    - time: 2.4166667
      value: {fileID: 2820900673457866422, guid: cd733938e142d514bb3ee6e6364f1362,
        type: 3}
    - time: 2.4583333
      value: {fileID: -2241020417433319224, guid: cd733938e142d514bb3ee6e6364f1362,
        type: 3}
    - time: 2.5
      value: {fileID: -8094021335726610841, guid: cd733938e142d514bb3ee6e6364f1362,
        type: 3}
    - time: 2.5416667
      value: {fileID: -8303892320320656839, guid: cd733938e142d514bb3ee6e6364f1362,
        type: 3}
    - time: 2.5833333
      value: {fileID: -778242945950918985, guid: cd733938e142d514bb3ee6e6364f1362,
        type: 3}
    - time: 2.625
      value: {fileID: 6009454911957420995, guid: cd733938e142d514bb3ee6e6364f1362,
        type: 3}
    - time: 2.6666667
      value: {fileID: 7873944975284092965, guid: cd733938e142d514bb3ee6e6364f1362,
        type: 3}
    - time: 2.7083333
      value: {fileID: -4838945889653586836, guid: cd733938e142d514bb3ee6e6364f1362,
        type: 3}
    - time: 2.75
      value: {fileID: 167331293271928248, guid: cd733938e142d514bb3ee6e6364f1362,
        type: 3}
    - time: 2.7916667
      value: {fileID: 7499766356426261975, guid: cd733938e142d514bb3ee6e6364f1362,
        type: 3}
    - time: 2.8333333
      value: {fileID: -1586583532278297015, guid: cd733938e142d514bb3ee6e6364f1362,
        type: 3}
    - time: 2.875
      value: {fileID: 1819950600026579378, guid: cd733938e142d514bb3ee6e6364f1362,
        type: 3}
    - time: 2.9166667
      value: {fileID: 8893608188472639209, guid: cd733938e142d514bb3ee6e6364f1362,
        type: 3}
    - time: 2.9583333
      value: {fileID: -2613252921156396431, guid: cd733938e142d514bb3ee6e6364f1362,
        type: 3}
    - time: 3
      value: {fileID: -6539337875946286641, guid: cd733938e142d514bb3ee6e6364f1362,
        type: 3}
    - time: 3.0416667
      value: {fileID: -3296919405051776372, guid: cd733938e142d514bb3ee6e6364f1362,
        type: 3}
    - time: 3.0833333
      value: {fileID: -2282766015094221997, guid: cd733938e142d514bb3ee6e6364f1362,
        type: 3}
    - time: 3.125
      value: {fileID: 8964893768988286006, guid: cd733938e142d514bb3ee6e6364f1362,
        type: 3}
    - time: 3.1666667
      value: {fileID: 7670311006732986542, guid: cd733938e142d514bb3ee6e6364f1362,
        type: 3}
    - time: 3.2083333
      value: {fileID: 8456975499450846473, guid: cd733938e142d514bb3ee6e6364f1362,
        type: 3}
    - time: 3.25
      value: {fileID: -6988992058960182133, guid: cd733938e142d514bb3ee6e6364f1362,
        type: 3}
    - time: 3.2916667
      value: {fileID: -1627199823883453313, guid: cd733938e142d514bb3ee6e6364f1362,
        type: 3}
    - time: 3.3333333
      value: {fileID: 8925314239325817598, guid: cd733938e142d514bb3ee6e6364f1362,
        type: 3}
    - time: 3.375
      value: {fileID: 1850969044750121157, guid: cd733938e142d514bb3ee6e6364f1362,
        type: 3}
    - time: 3.4166667
      value: {fileID: 5207238328771468128, guid: cd733938e142d514bb3ee6e6364f1362,
        type: 3}
    - time: 3.4583333
      value: {fileID: -5536645129497915169, guid: cd733938e142d514bb3ee6e6364f1362,
        type: 3}
    - time: 3.5
      value: {fileID: 5620521958306032383, guid: cd733938e142d514bb3ee6e6364f1362,
        type: 3}
    - time: 3.5416667
      value: {fileID: 8880547128405509806, guid: cd733938e142d514bb3ee6e6364f1362,
        type: 3}
    - time: 3.5833333
      value: {fileID: 9176923596369588678, guid: cd733938e142d514bb3ee6e6364f1362,
        type: 3}
    - time: 3.625
      value: {fileID: -1872920428887797507, guid: cd733938e142d514bb3ee6e6364f1362,
        type: 3}
    - time: 3.6666667
      value: {fileID: 2884397543113064928, guid: cd733938e142d514bb3ee6e6364f1362,
        type: 3}
    attribute: m_Sprite
    path: Body
    classID: 212
    script: {fileID: 0}
  m_SampleRate: 24
  m_WrapMode: 0
  m_Bounds:
    m_Center: {x: 0, y: 0, z: 0}
    m_Extent: {x: 0, y: 0, z: 0}
  m_ClipBindingConstant:
    genericBindings:
    - serializedVersion: 2
      path: 2073732236
      attribute: 0
      script: {fileID: 0}
      typeID: 212
      customType: 23
      isPPtrCurve: 1
    pptrCurveMapping:
    - {fileID: -3340233067479159950, guid: cd733938e142d514bb3ee6e6364f1362, type: 3}
    - {fileID: -3973701328654710892, guid: cd733938e142d514bb3ee6e6364f1362, type: 3}
    - {fileID: 7460013834076210185, guid: cd733938e142d514bb3ee6e6364f1362, type: 3}
    - {fileID: 3617570274085136561, guid: cd733938e142d514bb3ee6e6364f1362, type: 3}
    - {fileID: -723404634819465821, guid: cd733938e142d514bb3ee6e6364f1362, type: 3}
    - {fileID: 6916213579619569285, guid: cd733938e142d514bb3ee6e6364f1362, type: 3}
    - {fileID: 194356909083271977, guid: cd733938e142d514bb3ee6e6364f1362, type: 3}
    - {fileID: 5864936328320449481, guid: cd733938e142d514bb3ee6e6364f1362, type: 3}
    - {fileID: -9164311563850487235, guid: cd733938e142d514bb3ee6e6364f1362, type: 3}
    - {fileID: -5099081048025030643, guid: cd733938e142d514bb3ee6e6364f1362, type: 3}
    - {fileID: 5537919864947286379, guid: cd733938e142d514bb3ee6e6364f1362, type: 3}
    - {fileID: 6624424256340238522, guid: cd733938e142d514bb3ee6e6364f1362, type: 3}
    - {fileID: -359627748026061233, guid: cd733938e142d514bb3ee6e6364f1362, type: 3}
    - {fileID: -8887494398126645591, guid: cd733938e142d514bb3ee6e6364f1362, type: 3}
    - {fileID: 7006078195028664680, guid: cd733938e142d514bb3ee6e6364f1362, type: 3}
    - {fileID: -1356629129952778962, guid: cd733938e142d514bb3ee6e6364f1362, type: 3}
    - {fileID: 8295359217853608003, guid: cd733938e142d514bb3ee6e6364f1362, type: 3}
    - {fileID: -6131910708691679955, guid: cd733938e142d514bb3ee6e6364f1362, type: 3}
    - {fileID: 552055520336269921, guid: cd733938e142d514bb3ee6e6364f1362, type: 3}
    - {fileID: 8058351056531653618, guid: cd733938e142d514bb3ee6e6364f1362, type: 3}
    - {fileID: 1700631915826854273, guid: cd733938e142d514bb3ee6e6364f1362, type: 3}
    - {fileID: -2962686900436319612, guid: cd733938e142d514bb3ee6e6364f1362, type: 3}
    - {fileID: -5889518422000451267, guid: cd733938e142d514bb3ee6e6364f1362, type: 3}
    - {fileID: 7998882612465903966, guid: cd733938e142d514bb3ee6e6364f1362, type: 3}
    - {fileID: -3969949779018097958, guid: cd733938e142d514bb3ee6e6364f1362, type: 3}
    - {fileID: -8203119235108878569, guid: cd733938e142d514bb3ee6e6364f1362, type: 3}
    - {fileID: -7450644094000235110, guid: cd733938e142d514bb3ee6e6364f1362, type: 3}
    - {fileID: 1090578872040889171, guid: cd733938e142d514bb3ee6e6364f1362, type: 3}
    - {fileID: -3231794851537249288, guid: cd733938e142d514bb3ee6e6364f1362, type: 3}
    - {fileID: 6543109952153106319, guid: cd733938e142d514bb3ee6e6364f1362, type: 3}
    - {fileID: -559683021808790752, guid: cd733938e142d514bb3ee6e6364f1362, type: 3}
    - {fileID: -7189123841070871123, guid: cd733938e142d514bb3ee6e6364f1362, type: 3}
    - {fileID: -4150084752782451529, guid: cd733938e142d514bb3ee6e6364f1362, type: 3}
    - {fileID: 7953293416334195047, guid: cd733938e142d514bb3ee6e6364f1362, type: 3}
    - {fileID: -5173281111964905524, guid: cd733938e142d514bb3ee6e6364f1362, type: 3}
    - {fileID: -8791214569530535495, guid: cd733938e142d514bb3ee6e6364f1362, type: 3}
    - {fileID: 2424690637353557625, guid: cd733938e142d514bb3ee6e6364f1362, type: 3}
    - {fileID: -860907419282037124, guid: cd733938e142d514bb3ee6e6364f1362, type: 3}
    - {fileID: -3893218274441486823, guid: cd733938e142d514bb3ee6e6364f1362, type: 3}
    - {fileID: -2522337004360429907, guid: cd733938e142d514bb3ee6e6364f1362, type: 3}
    - {fileID: -2904953644048260341, guid: cd733938e142d514bb3ee6e6364f1362, type: 3}
    - {fileID: -1627432884647786759, guid: cd733938e142d514bb3ee6e6364f1362, type: 3}
    - {fileID: -5364742938498592456, guid: cd733938e142d514bb3ee6e6364f1362, type: 3}
    - {fileID: -2910702123271436369, guid: cd733938e142d514bb3ee6e6364f1362, type: 3}
    - {fileID: -612112408011298337, guid: cd733938e142d514bb3ee6e6364f1362, type: 3}
    - {fileID: 8574535695255557858, guid: cd733938e142d514bb3ee6e6364f1362, type: 3}
    - {fileID: 2076566718247255247, guid: cd733938e142d514bb3ee6e6364f1362, type: 3}
    - {fileID: -3227790618158858614, guid: cd733938e142d514bb3ee6e6364f1362, type: 3}
    - {fileID: 1764238319824030632, guid: cd733938e142d514bb3ee6e6364f1362, type: 3}
    - {fileID: 863045585016818970, guid: cd733938e142d514bb3ee6e6364f1362, type: 3}
    - {fileID: 4527178231594079772, guid: cd733938e142d514bb3ee6e6364f1362, type: 3}
    - {fileID: 5543491491057938867, guid: cd733938e142d514bb3ee6e6364f1362, type: 3}
    - {fileID: 6963352758802786794, guid: cd733938e142d514bb3ee6e6364f1362, type: 3}
    - {fileID: 8516106951271197370, guid: cd733938e142d514bb3ee6e6364f1362, type: 3}
    - {fileID: 916259748796442713, guid: cd733938e142d514bb3ee6e6364f1362, type: 3}
    - {fileID: 9155745486195939629, guid: cd733938e142d514bb3ee6e6364f1362, type: 3}
    - {fileID: -5604277894892616984, guid: cd733938e142d514bb3ee6e6364f1362, type: 3}
    - {fileID: 1249685852213211978, guid: cd733938e142d514bb3ee6e6364f1362, type: 3}
    - {fileID: 2820900673457866422, guid: cd733938e142d514bb3ee6e6364f1362, type: 3}
    - {fileID: -2241020417433319224, guid: cd733938e142d514bb3ee6e6364f1362, type: 3}
    - {fileID: -8094021335726610841, guid: cd733938e142d514bb3ee6e6364f1362, type: 3}
    - {fileID: -8303892320320656839, guid: cd733938e142d514bb3ee6e6364f1362, type: 3}
    - {fileID: -778242945950918985, guid: cd733938e142d514bb3ee6e6364f1362, type: 3}
    - {fileID: 6009454911957420995, guid: cd733938e142d514bb3ee6e6364f1362, type: 3}
    - {fileID: 7873944975284092965, guid: cd733938e142d514bb3ee6e6364f1362, type: 3}
    - {fileID: -4838945889653586836, guid: cd733938e142d514bb3ee6e6364f1362, type: 3}
    - {fileID: 167331293271928248, guid: cd733938e142d514bb3ee6e6364f1362, type: 3}
    - {fileID: 7499766356426261975, guid: cd733938e142d514bb3ee6e6364f1362, type: 3}
    - {fileID: -1586583532278297015, guid: cd733938e142d514bb3ee6e6364f1362, type: 3}
    - {fileID: 1819950600026579378, guid: cd733938e142d514bb3ee6e6364f1362, type: 3}
    - {fileID: 8893608188472639209, guid: cd733938e142d514bb3ee6e6364f1362, type: 3}
    - {fileID: -2613252921156396431, guid: cd733938e142d514bb3ee6e6364f1362, type: 3}
    - {fileID: -6539337875946286641, guid: cd733938e142d514bb3ee6e6364f1362, type: 3}
    - {fileID: -3296919405051776372, guid: cd733938e142d514bb3ee6e6364f1362, type: 3}
    - {fileID: -2282766015094221997, guid: cd733938e142d514bb3ee6e6364f1362, type: 3}
    - {fileID: 8964893768988286006, guid: cd733938e142d514bb3ee6e6364f1362, type: 3}
    - {fileID: 7670311006732986542, guid: cd733938e142d514bb3ee6e6364f1362, type: 3}
    - {fileID: 8456975499450846473, guid: cd733938e142d514bb3ee6e6364f1362, type: 3}
    - {fileID: -6988992058960182133, guid: cd733938e142d514bb3ee6e6364f1362, type: 3}
    - {fileID: -1627199823883453313, guid: cd733938e142d514bb3ee6e6364f1362, type: 3}
    - {fileID: 8925314239325817598, guid: cd733938e142d514bb3ee6e6364f1362, type: 3}
    - {fileID: 1850969044750121157, guid: cd733938e142d514bb3ee6e6364f1362, type: 3}
    - {fileID: 5207238328771468128, guid: cd733938e142d514bb3ee6e6364f1362, type: 3}
    - {fileID: -5536645129497915169, guid: cd733938e142d514bb3ee6e6364f1362, type: 3}
    - {fileID: 5620521958306032383, guid: cd733938e142d514bb3ee6e6364f1362, type: 3}
    - {fileID: 8880547128405509806, guid: cd733938e142d514bb3ee6e6364f1362, type: 3}
    - {fileID: 9176923596369588678, guid: cd733938e142d514bb3ee6e6364f1362, type: 3}
    - {fileID: -1872920428887797507, guid: cd733938e142d514bb3ee6e6364f1362, type: 3}
    - {fileID: 2884397543113064928, guid: cd733938e142d514bb3ee6e6364f1362, type: 3}
  m_AnimationClipSettings:
    serializedVersion: 2
    m_AdditiveReferencePoseClip: {fileID: 0}
    m_AdditiveReferencePoseTime: 0
    m_StartTime: 0
    m_StopTime: 3.7083335
    m_OrientationOffsetY: 0
    m_Level: 0
    m_CycleOffset: 0
    m_HasAdditiveReferencePose: 0
    m_LoopTime: 1
    m_LoopBlend: 0
    m_LoopBlendOrientation: 0
    m_LoopBlendPositionY: 0
    m_LoopBlendPositionXZ: 0
    m_KeepOriginalOrientation: 0
    m_KeepOriginalPositionY: 1
    m_KeepOriginalPositionXZ: 0
    m_HeightFromFeet: 0
    m_Mirror: 0
  m_EditorCurves: []
  m_EulerEditorCurves: []
  m_HasGenericRootTransform: 0
  m_HasMotionFloatCurves: 0
  m_Events:
  - time: 0
    functionName: SetMovementSpeed
    data: 
    objectReferenceParameter: {fileID: 0}
    floatParameter: 0
    intParameter: 0
    messageOptions: 0
  - time: 0.083333336
    functionName: StrikeCurrentTarget
    data: 
    objectReferenceParameter: {fileID: 0}
    floatParameter: 50
    intParameter: 0
    messageOptions: 0
