%YAML 1.1
%TAG !u! tag:unity3d.com,2011:
--- !u!74 &7400000
AnimationClip:
  m_ObjectHideFlags: 0
  m_CorrespondingSourceObject: {fileID: 0}
  m_PrefabInstance: {fileID: 0}
  m_PrefabAsset: {fileID: 0}
  m_Name: Lizard Walk
  serializedVersion: 6
  m_Legacy: 0
  m_Compressed: 0
  m_UseHighQualityCurve: 1
  m_RotationCurves: []
  m_CompressedRotationCurves: []
  m_EulerCurves: []
  m_PositionCurves: []
  m_ScaleCurves: []
  m_FloatCurves: []
  m_PPtrCurves:
  - curve:
    - time: 0
      value: {fileID: -1128813155181456575, guid: 566c629422e49764998cf751abb2c41f,
        type: 3}
    - time: 0.035714287
      value: {fileID: 1520745819135918501, guid: 566c629422e49764998cf751abb2c41f,
        type: 3}
    - time: 0.10714286
      value: {fileID: -4709280254044599183, guid: 566c629422e49764998cf751abb2c41f,
        type: 3}
    - time: 0.14285715
      value: {fileID: 4590406444734685468, guid: 566c629422e49764998cf751abb2c41f,
        type: 3}
    - time: 0.17857143
      value: {fileID: -5809404870691078281, guid: 566c629422e49764998cf751abb2c41f,
        type: 3}
    - time: 0.25
      value: {fileID: -2436582601614883610, guid: 566c629422e49764998cf751abb2c41f,
        type: 3}
    - time: 0.2857143
      value: {fileID: -1162995401479403774, guid: 566c629422e49764998cf751abb2c41f,
        type: 3}
    - time: 0.32142857
      value: {fileID: -7865660583983276481, guid: 566c629422e49764998cf751abb2c41f,
        type: 3}
    - time: 0.39285713
      value: {fileID: 8388405808098119969, guid: 566c629422e49764998cf751abb2c41f,
        type: 3}
    - time: 0.42857143
      value: {fileID: -6411607694698082604, guid: 566c629422e49764998cf751abb2c41f,
        type: 3}
    - time: 0.4642857
      value: {fileID: 3660547630272793605, guid: 566c629422e49764998cf751abb2c41f,
        type: 3}
    - time: 0.53571427
      value: {fileID: 3588683558252167826, guid: 566c629422e49764998cf751abb2c41f,
        type: 3}
    - time: 0.5714286
      value: {fileID: 5641522445841669798, guid: 566c629422e49764998cf751abb2c41f,
        type: 3}
    - time: 0.60714287
      value: {fileID: -6065032518069352639, guid: 566c629422e49764998cf751abb2c41f,
        type: 3}
    - time: 0.6785714
      value: {fileID: 5534433422041613636, guid: 566c629422e49764998cf751abb2c41f,
        type: 3}
    - time: 0.71428573
      value: {fileID: 6716164222309021627, guid: 566c629422e49764998cf751abb2c41f,
        type: 3}
    attribute: m_Sprite
    path: Body
    classID: 212
    script: {fileID: 0}
  m_SampleRate: 28
  m_WrapMode: 0
  m_Bounds:
    m_Center: {x: 0, y: 0, z: 0}
    m_Extent: {x: 0, y: 0, z: 0}
  m_ClipBindingConstant:
    genericBindings:
    - serializedVersion: 2
      path: 2073732236
      attribute: 0
      script: {fileID: 0}
      typeID: 212
      customType: 23
      isPPtrCurve: 1
    pptrCurveMapping:
    - {fileID: -1128813155181456575, guid: 566c629422e49764998cf751abb2c41f, type: 3}
    - {fileID: 1520745819135918501, guid: 566c629422e49764998cf751abb2c41f, type: 3}
    - {fileID: -4709280254044599183, guid: 566c629422e49764998cf751abb2c41f, type: 3}
    - {fileID: 4590406444734685468, guid: 566c629422e49764998cf751abb2c41f, type: 3}
    - {fileID: -5809404870691078281, guid: 566c629422e49764998cf751abb2c41f, type: 3}
    - {fileID: -2436582601614883610, guid: 566c629422e49764998cf751abb2c41f, type: 3}
    - {fileID: -1162995401479403774, guid: 566c629422e49764998cf751abb2c41f, type: 3}
    - {fileID: -7865660583983276481, guid: 566c629422e49764998cf751abb2c41f, type: 3}
    - {fileID: 8388405808098119969, guid: 566c629422e49764998cf751abb2c41f, type: 3}
    - {fileID: -6411607694698082604, guid: 566c629422e49764998cf751abb2c41f, type: 3}
    - {fileID: 3660547630272793605, guid: 566c629422e49764998cf751abb2c41f, type: 3}
    - {fileID: 3588683558252167826, guid: 566c629422e49764998cf751abb2c41f, type: 3}
    - {fileID: 5641522445841669798, guid: 566c629422e49764998cf751abb2c41f, type: 3}
    - {fileID: -6065032518069352639, guid: 566c629422e49764998cf751abb2c41f, type: 3}
    - {fileID: 5534433422041613636, guid: 566c629422e49764998cf751abb2c41f, type: 3}
    - {fileID: 6716164222309021627, guid: 566c629422e49764998cf751abb2c41f, type: 3}
  m_AnimationClipSettings:
    serializedVersion: 2
    m_AdditiveReferencePoseClip: {fileID: 0}
    m_AdditiveReferencePoseTime: 0
    m_StartTime: 0
    m_StopTime: 0.75
    m_OrientationOffsetY: 0
    m_Level: 0
    m_CycleOffset: 0
    m_HasAdditiveReferencePose: 0
    m_LoopTime: 1
    m_LoopBlend: 0
    m_LoopBlendOrientation: 0
    m_LoopBlendPositionY: 0
    m_LoopBlendPositionXZ: 0
    m_KeepOriginalOrientation: 0
    m_KeepOriginalPositionY: 1
    m_KeepOriginalPositionXZ: 0
    m_HeightFromFeet: 0
    m_Mirror: 0
  m_EditorCurves: []
  m_EulerEditorCurves: []
  m_HasGenericRootTransform: 0
  m_HasMotionFloatCurves: 0
  m_Events:
  - time: 0.035714287
    functionName: SetMovementSpeed
    data: 
    objectReferenceParameter: {fileID: 0}
    floatParameter: 1
    intParameter: 0
    messageOptions: 0
