%YAML 1.1
%TAG !u! tag:unity3d.com,2011:
--- !u!29 &1
OcclusionCullingSettings:
  m_ObjectHideFlags: 0
  serializedVersion: 2
  m_OcclusionBakeSettings:
    smallestOccluder: 5
    smallestHole: 0.25
    backfaceThreshold: 100
  m_SceneGUID: 00000000000000000000000000000000
  m_OcclusionCullingData: {fileID: 0}
--- !u!104 &2
RenderSettings:
  m_ObjectHideFlags: 0
  serializedVersion: 9
  m_Fog: 0
  m_FogColor: {r: 0.5, g: 0.5, b: 0.5, a: 1}
  m_FogMode: 3
  m_FogDensity: 0.01
  m_LinearFogStart: 0
  m_LinearFogEnd: 300
  m_AmbientSkyColor: {r: 0.212, g: 0.227, b: 0.259, a: 1}
  m_AmbientEquatorColor: {r: 0.114, g: 0.125, b: 0.133, a: 1}
  m_AmbientGroundColor: {r: 0.047, g: 0.043, b: 0.035, a: 1}
  m_AmbientIntensity: 1
  m_AmbientMode: 3
  m_SubtractiveShadowColor: {r: 0.42, g: 0.478, b: 0.627, a: 1}
  m_SkyboxMaterial: {fileID: 0}
  m_HaloStrength: 0.5
  m_FlareStrength: 1
  m_FlareFadeSpeed: 3
  m_HaloTexture: {fileID: 0}
  m_SpotCookie: {fileID: 10001, guid: 0000000000000000e000000000000000, type: 0}
  m_DefaultReflectionMode: 0
  m_DefaultReflectionResolution: 128
  m_ReflectionBounces: 1
  m_ReflectionIntensity: 1
  m_CustomReflection: {fileID: 0}
  m_Sun: {fileID: 0}
  m_IndirectSpecularColor: {r: 0, g: 0, b: 0, a: 1}
  m_UseRadianceAmbientProbe: 0
--- !u!157 &3
LightmapSettings:
  m_ObjectHideFlags: 0
  serializedVersion: 12
  m_GIWorkflowMode: 1
  m_GISettings:
    serializedVersion: 2
    m_BounceScale: 1
    m_IndirectOutputScale: 1
    m_AlbedoBoost: 1
    m_EnvironmentLightingMode: 0
    m_EnableBakedLightmaps: 0
    m_EnableRealtimeLightmaps: 0
  m_LightmapEditorSettings:
    serializedVersion: 12
    m_Resolution: 2
    m_BakeResolution: 40
    m_AtlasSize: 1024
    m_AO: 0
    m_AOMaxDistance: 1
    m_CompAOExponent: 1
    m_CompAOExponentDirect: 0
    m_ExtractAmbientOcclusion: 0
    m_Padding: 2
    m_LightmapParameters: {fileID: 0}
    m_LightmapsBakeMode: 1
    m_TextureCompression: 1
    m_FinalGather: 0
    m_FinalGatherFiltering: 1
    m_FinalGatherRayCount: 256
    m_ReflectionCompression: 2
    m_MixedBakeMode: 2
    m_BakeBackend: 0
    m_PVRSampling: 1
    m_PVRDirectSampleCount: 32
    m_PVRSampleCount: 500
    m_PVRBounces: 2
    m_PVREnvironmentSampleCount: 500
    m_PVREnvironmentReferencePointCount: 2048
    m_PVRFilteringMode: 2
    m_PVRDenoiserTypeDirect: 0
    m_PVRDenoiserTypeIndirect: 0
    m_PVRDenoiserTypeAO: 0
    m_PVRFilterTypeDirect: 0
    m_PVRFilterTypeIndirect: 0
    m_PVRFilterTypeAO: 0
    m_PVREnvironmentMIS: 0
    m_PVRCulling: 1
    m_PVRFilteringGaussRadiusDirect: 1
    m_PVRFilteringGaussRadiusIndirect: 5
    m_PVRFilteringGaussRadiusAO: 2
    m_PVRFilteringAtrousPositionSigmaDirect: 0.5
    m_PVRFilteringAtrousPositionSigmaIndirect: 2
    m_PVRFilteringAtrousPositionSigmaAO: 1
    m_ExportTrainingData: 0
    m_TrainingDataDestination: TrainingData
    m_LightProbeSampleCountMultiplier: 4
  m_LightingDataAsset: {fileID: 0}
  m_LightingSettings: {fileID: 1792475080}
--- !u!196 &4
NavMeshSettings:
  serializedVersion: 2
  m_ObjectHideFlags: 0
  m_BuildSettings:
    serializedVersion: 2
    agentTypeID: 0
    agentRadius: 0.5
    agentHeight: 2
    agentSlope: 45
    agentClimb: 0.4
    ledgeDropHeight: 0
    maxJumpAcrossDistance: 0
    minRegionArea: 2
    manualCellSize: 0
    cellSize: 0.16666667
    manualTileSize: 0
    tileSize: 256
    accuratePlacement: 0
    maxJobWorkers: 0
    preserveTilesOutsideBounds: 0
    debug:
      m_Flags: 0
  m_NavMeshData: {fileID: 0}
--- !u!1 &1304879931
GameObject:
  m_ObjectHideFlags: 0
  m_CorrespondingSourceObject: {fileID: 0}
  m_PrefabInstance: {fileID: 0}
  m_PrefabAsset: {fileID: 0}
  serializedVersion: 6
  m_Component:
  - component: {fileID: 1304879934}
  - component: {fileID: 1304879933}
  - component: {fileID: 1304879932}
  m_Layer: 0
  m_Name: EventSystem
  m_TagString: Untagged
  m_Icon: {fileID: 0}
  m_NavMeshLayer: 0
  m_StaticEditorFlags: 0
  m_IsActive: 1
--- !u!114 &1304879932
MonoBehaviour:
  m_ObjectHideFlags: 0
  m_CorrespondingSourceObject: {fileID: 0}
  m_PrefabInstance: {fileID: 0}
  m_PrefabAsset: {fileID: 0}
  m_GameObject: {fileID: 1304879931}
  m_Enabled: 1
  m_EditorHideFlags: 0
  m_Script: {fileID: 11500000, guid: 4f231c4fb786f3946a6b90b886c48677, type: 3}
  m_Name: 
  m_EditorClassIdentifier: 
  m_HorizontalAxis: Horizontal
  m_VerticalAxis: Vertical
  m_SubmitButton: Submit
  m_CancelButton: Cancel
  m_InputActionsPerSecond: 10
  m_RepeatDelay: 0.5
  m_ForceModuleActive: 0
--- !u!114 &1304879933
MonoBehaviour:
  m_ObjectHideFlags: 0
  m_CorrespondingSourceObject: {fileID: 0}
  m_PrefabInstance: {fileID: 0}
  m_PrefabAsset: {fileID: 0}
  m_GameObject: {fileID: 1304879931}
  m_Enabled: 1
  m_EditorHideFlags: 0
  m_Script: {fileID: 11500000, guid: 76c392e42b5098c458856cdf6ecaaaa1, type: 3}
  m_Name: 
  m_EditorClassIdentifier: 
  m_FirstSelected: {fileID: 0}
  m_sendNavigationEvents: 1
  m_DragThreshold: 10
--- !u!4 &1304879934
Transform:
  m_ObjectHideFlags: 0
  m_CorrespondingSourceObject: {fileID: 0}
  m_PrefabInstance: {fileID: 0}
  m_PrefabAsset: {fileID: 0}
  m_GameObject: {fileID: 1304879931}
  m_LocalRotation: {x: 0, y: 0, z: 0, w: 1}
  m_LocalPosition: {x: 0, y: 0, z: 0}
  m_LocalScale: {x: 1, y: 1, z: 1}
  m_Children: []
  m_Father: {fileID: 0}
  m_RootOrder: 4
  m_LocalEulerAnglesHint: {x: 0, y: 0, z: 0}
--- !u!850595691 &1792475080
LightingSettings:
  m_ObjectHideFlags: 0
  m_CorrespondingSourceObject: {fileID: 0}
  m_PrefabInstance: {fileID: 0}
  m_PrefabAsset: {fileID: 0}
  m_Name: Settings.lighting
  serializedVersion: 2
  m_GIWorkflowMode: 1
  m_EnableBakedLightmaps: 0
  m_EnableRealtimeLightmaps: 0
  m_RealtimeEnvironmentLighting: 1
  m_BounceScale: 1
  m_AlbedoBoost: 1
  m_IndirectOutputScale: 1
  m_UsingShadowmask: 1
  m_BakeBackend: 0
  m_LightmapMaxSize: 1024
  m_BakeResolution: 40
  m_Padding: 2
  m_TextureCompression: 1
  m_AO: 0
  m_AOMaxDistance: 1
  m_CompAOExponent: 1
  m_CompAOExponentDirect: 0
  m_ExtractAO: 0
  m_MixedBakeMode: 2
  m_LightmapsBakeMode: 1
  m_FilterMode: 1
  m_LightmapParameters: {fileID: 0}
  m_ExportTrainingData: 0
  m_TrainingDataDestination: TrainingData
  m_RealtimeResolution: 2
  m_ForceWhiteAlbedo: 0
  m_ForceUpdates: 0
  m_FinalGather: 0
  m_FinalGatherRayCount: 256
  m_FinalGatherFiltering: 1
  m_PVRCulling: 1
  m_PVRSampling: 1
  m_PVRDirectSampleCount: 32
  m_PVRSampleCount: 500
  m_PVREnvironmentSampleCount: 500
  m_PVREnvironmentReferencePointCount: 2048
  m_LightProbeSampleCountMultiplier: 4
  m_PVRBounces: 2
  m_PVRRussianRouletteStartBounce: 2
  m_PVREnvironmentMIS: 0
  m_PVRFilteringMode: 2
  m_PVRDenoiserTypeDirect: 0
  m_PVRDenoiserTypeIndirect: 0
  m_PVRDenoiserTypeAO: 0
  m_PVRFilterTypeDirect: 0
  m_PVRFilterTypeIndirect: 0
  m_PVRFilterTypeAO: 0
  m_PVRFilteringGaussRadiusDirect: 1
  m_PVRFilteringGaussRadiusIndirect: 5
  m_PVRFilteringGaussRadiusAO: 2
  m_PVRFilteringAtrousPositionSigmaDirect: 0.5
  m_PVRFilteringAtrousPositionSigmaIndirect: 2
  m_PVRFilteringAtrousPositionSigmaAO: 1
--- !u!1 &2013636588 stripped
GameObject:
  m_CorrespondingSourceObject: {fileID: 1762063637117199219, guid: ae5bb8778ab176a46a86fd0a14893246,
    type: 3}
  m_PrefabInstance: {fileID: 8819862488487663694}
  m_PrefabAsset: {fileID: 0}
--- !u!1001 &2292089405997356278
PrefabInstance:
  m_ObjectHideFlags: 0
  serializedVersion: 2
  m_Modification:
    m_TransformParent: {fileID: 0}
    m_Modifications:
    - target: {fileID: 2292089407195690744, guid: b166f4ff0ff43a44db611cdec2223406,
        type: 3}
      propertyPath: m_LocalPosition.x
      value: 0
      objectReference: {fileID: 0}
    - target: {fileID: 2292089407195690744, guid: b166f4ff0ff43a44db611cdec2223406,
        type: 3}
      propertyPath: m_LocalPosition.y
      value: 0
      objectReference: {fileID: 0}
    - target: {fileID: 2292089407195690744, guid: b166f4ff0ff43a44db611cdec2223406,
        type: 3}
      propertyPath: m_LocalPosition.z
      value: 0
      objectReference: {fileID: 0}
    - target: {fileID: 2292089407195690744, guid: b166f4ff0ff43a44db611cdec2223406,
        type: 3}
      propertyPath: m_LocalRotation.x
      value: 0
      objectReference: {fileID: 0}
    - target: {fileID: 2292089407195690744, guid: b166f4ff0ff43a44db611cdec2223406,
        type: 3}
      propertyPath: m_LocalRotation.y
      value: 0
      objectReference: {fileID: 0}
    - target: {fileID: 2292089407195690744, guid: b166f4ff0ff43a44db611cdec2223406,
        type: 3}
      propertyPath: m_LocalRotation.z
      value: 0
      objectReference: {fileID: 0}
    - target: {fileID: 2292089407195690744, guid: b166f4ff0ff43a44db611cdec2223406,
        type: 3}
      propertyPath: m_LocalRotation.w
      value: 1
      objectReference: {fileID: 0}
    - target: {fileID: 2292089407195690744, guid: b166f4ff0ff43a44db611cdec2223406,
        type: 3}
      propertyPath: m_RootOrder
      value: 3
      objectReference: {fileID: 0}
    - target: {fileID: 2292089407195690744, guid: b166f4ff0ff43a44db611cdec2223406,
        type: 3}
      propertyPath: m_LocalEulerAnglesHint.x
      value: 0
      objectReference: {fileID: 0}
    - target: {fileID: 2292089407195690744, guid: b166f4ff0ff43a44db611cdec2223406,
        type: 3}
      propertyPath: m_LocalEulerAnglesHint.y
      value: 0
      objectReference: {fileID: 0}
    - target: {fileID: 2292089407195690744, guid: b166f4ff0ff43a44db611cdec2223406,
        type: 3}
      propertyPath: m_LocalEulerAnglesHint.z
      value: 0
      objectReference: {fileID: 0}
    - target: {fileID: 2292089407195690746, guid: b166f4ff0ff43a44db611cdec2223406,
        type: 3}
      propertyPath: m_Name
      value: Level Loader
      objectReference: {fileID: 0}
    m_RemovedComponents: []
  m_SourcePrefab: {fileID: 100100000, guid: b166f4ff0ff43a44db611cdec2223406, type: 3}
--- !u!1001 &2344954618223173483
PrefabInstance:
  m_ObjectHideFlags: 0
  serializedVersion: 2
  m_Modification:
    m_TransformParent: {fileID: 0}
    m_Modifications:
    - target: {fileID: 2344954617794083899, guid: 38fbb12157f49f346bc0aeebb54c580b,
        type: 3}
      propertyPath: m_LocalPosition.x
      value: 0.1115
      objectReference: {fileID: 0}
    - target: {fileID: 2344954619240746695, guid: 38fbb12157f49f346bc0aeebb54c580b,
        type: 3}
      propertyPath: m_LocalPosition.x
      value: 0
      objectReference: {fileID: 0}
    - target: {fileID: 2344954619776819501, guid: 38fbb12157f49f346bc0aeebb54c580b,
        type: 3}
      propertyPath: m_LocalPosition.x
      value: 0
      objectReference: {fileID: 0}
    - target: {fileID: 2344954619776819501, guid: 38fbb12157f49f346bc0aeebb54c580b,
        type: 3}
      propertyPath: m_LocalPosition.y
      value: 0
      objectReference: {fileID: 0}
    - target: {fileID: 2344954619776819501, guid: 38fbb12157f49f346bc0aeebb54c580b,
        type: 3}
      propertyPath: m_LocalPosition.z
      value: 0
      objectReference: {fileID: 0}
    - target: {fileID: 2344954619776819501, guid: 38fbb12157f49f346bc0aeebb54c580b,
        type: 3}
      propertyPath: m_LocalRotation.x
      value: 0
      objectReference: {fileID: 0}
    - target: {fileID: 2344954619776819501, guid: 38fbb12157f49f346bc0aeebb54c580b,
        type: 3}
      propertyPath: m_LocalRotation.y
      value: 0
      objectReference: {fileID: 0}
    - target: {fileID: 2344954619776819501, guid: 38fbb12157f49f346bc0aeebb54c580b,
        type: 3}
      propertyPath: m_LocalRotation.z
      value: 0
      objectReference: {fileID: 0}
    - target: {fileID: 2344954619776819501, guid: 38fbb12157f49f346bc0aeebb54c580b,
        type: 3}
      propertyPath: m_LocalRotation.w
      value: 1
      objectReference: {fileID: 0}
    - target: {fileID: 2344954619776819501, guid: 38fbb12157f49f346bc0aeebb54c580b,
        type: 3}
      propertyPath: m_RootOrder
      value: 7
      objectReference: {fileID: 0}
    - target: {fileID: 2344954619776819501, guid: 38fbb12157f49f346bc0aeebb54c580b,
        type: 3}
      propertyPath: m_LocalEulerAnglesHint.x
      value: 0
      objectReference: {fileID: 0}
    - target: {fileID: 2344954619776819501, guid: 38fbb12157f49f346bc0aeebb54c580b,
        type: 3}
      propertyPath: m_LocalEulerAnglesHint.y
      value: 0
      objectReference: {fileID: 0}
    - target: {fileID: 2344954619776819501, guid: 38fbb12157f49f346bc0aeebb54c580b,
        type: 3}
      propertyPath: m_LocalEulerAnglesHint.z
      value: 0
      objectReference: {fileID: 0}
    - target: {fileID: 2344954619776819502, guid: 38fbb12157f49f346bc0aeebb54c580b,
        type: 3}
      propertyPath: m_Name
      value: Buttons
      objectReference: {fileID: 0}
    m_RemovedComponents: []
  m_SourcePrefab: {fileID: 100100000, guid: 38fbb12157f49f346bc0aeebb54c580b, type: 3}
--- !u!1001 &3638480617880145242
PrefabInstance:
  m_ObjectHideFlags: 0
  serializedVersion: 2
  m_Modification:
    m_TransformParent: {fileID: 0}
    m_Modifications:
    - target: {fileID: 3638480617900242214, guid: cd7d40464c0dd6148a06cf7b1e846a70,
        type: 3}
      propertyPath: m_Name
      value: Game Camera
      objectReference: {fileID: 0}
    - target: {fileID: 3638480617900242394, guid: cd7d40464c0dd6148a06cf7b1e846a70,
        type: 3}
      propertyPath: m_LocalPosition.x
      value: 5
      objectReference: {fileID: 0}
    - target: {fileID: 3638480617900242394, guid: cd7d40464c0dd6148a06cf7b1e846a70,
        type: 3}
      propertyPath: m_LocalPosition.y
      value: 3
      objectReference: {fileID: 0}
    - target: {fileID: 3638480617900242394, guid: cd7d40464c0dd6148a06cf7b1e846a70,
        type: 3}
      propertyPath: m_LocalPosition.z
      value: -10
      objectReference: {fileID: 0}
    - target: {fileID: 3638480617900242394, guid: cd7d40464c0dd6148a06cf7b1e846a70,
        type: 3}
      propertyPath: m_LocalRotation.x
      value: 0
      objectReference: {fileID: 0}
    - target: {fileID: 3638480617900242394, guid: cd7d40464c0dd6148a06cf7b1e846a70,
        type: 3}
      propertyPath: m_LocalRotation.y
      value: 0
      objectReference: {fileID: 0}
    - target: {fileID: 3638480617900242394, guid: cd7d40464c0dd6148a06cf7b1e846a70,
        type: 3}
      propertyPath: m_LocalRotation.z
      value: 0
      objectReference: {fileID: 0}
    - target: {fileID: 3638480617900242394, guid: cd7d40464c0dd6148a06cf7b1e846a70,
        type: 3}
      propertyPath: m_LocalRotation.w
      value: 1
      objectReference: {fileID: 0}
    - target: {fileID: 3638480617900242394, guid: cd7d40464c0dd6148a06cf7b1e846a70,
        type: 3}
      propertyPath: m_RootOrder
      value: 0
      objectReference: {fileID: 0}
    - target: {fileID: 3638480617900242394, guid: cd7d40464c0dd6148a06cf7b1e846a70,
        type: 3}
      propertyPath: m_LocalEulerAnglesHint.x
      value: 0
      objectReference: {fileID: 0}
    - target: {fileID: 3638480617900242394, guid: cd7d40464c0dd6148a06cf7b1e846a70,
        type: 3}
      propertyPath: m_LocalEulerAnglesHint.y
      value: 0
      objectReference: {fileID: 0}
    - target: {fileID: 3638480617900242394, guid: cd7d40464c0dd6148a06cf7b1e846a70,
        type: 3}
      propertyPath: m_LocalEulerAnglesHint.z
      value: 0
      objectReference: {fileID: 0}
    m_RemovedComponents: []
  m_SourcePrefab: {fileID: 100100000, guid: cd7d40464c0dd6148a06cf7b1e846a70, type: 3}
--- !u!1001 &4016583449884957683
PrefabInstance:
  m_ObjectHideFlags: 0
  serializedVersion: 2
  m_Modification:
    m_TransformParent: {fileID: 0}
    m_Modifications:
    - target: {fileID: 4016583449798933640, guid: e87409eab68564f4190410cbf5a08b09,
        type: 3}
      propertyPath: m_Name
      value: Level Controller
      objectReference: {fileID: 0}
    - target: {fileID: 4016583449798933646, guid: e87409eab68564f4190410cbf5a08b09,
        type: 3}
      propertyPath: m_LocalPosition.x
      value: 4.912885
      objectReference: {fileID: 0}
    - target: {fileID: 4016583449798933646, guid: e87409eab68564f4190410cbf5a08b09,
        type: 3}
      propertyPath: m_LocalPosition.y
      value: 2.9521291
      objectReference: {fileID: 0}
    - target: {fileID: 4016583449798933646, guid: e87409eab68564f4190410cbf5a08b09,
        type: 3}
      propertyPath: m_LocalPosition.z
      value: -10.436783
      objectReference: {fileID: 0}
    - target: {fileID: 4016583449798933646, guid: e87409eab68564f4190410cbf5a08b09,
        type: 3}
      propertyPath: m_LocalRotation.x
      value: 0
      objectReference: {fileID: 0}
    - target: {fileID: 4016583449798933646, guid: e87409eab68564f4190410cbf5a08b09,
        type: 3}
      propertyPath: m_LocalRotation.y
      value: 0
      objectReference: {fileID: 0}
    - target: {fileID: 4016583449798933646, guid: e87409eab68564f4190410cbf5a08b09,
        type: 3}
      propertyPath: m_LocalRotation.z
      value: 0
      objectReference: {fileID: 0}
    - target: {fileID: 4016583449798933646, guid: e87409eab68564f4190410cbf5a08b09,
        type: 3}
      propertyPath: m_LocalRotation.w
      value: 1
      objectReference: {fileID: 0}
    - target: {fileID: 4016583449798933646, guid: e87409eab68564f4190410cbf5a08b09,
        type: 3}
      propertyPath: m_RootOrder
      value: 9
      objectReference: {fileID: 0}
    - target: {fileID: 4016583449798933646, guid: e87409eab68564f4190410cbf5a08b09,
        type: 3}
      propertyPath: m_LocalEulerAnglesHint.x
      value: 0
      objectReference: {fileID: 0}
    - target: {fileID: 4016583449798933646, guid: e87409eab68564f4190410cbf5a08b09,
        type: 3}
      propertyPath: m_LocalEulerAnglesHint.y
      value: 0
      objectReference: {fileID: 0}
    - target: {fileID: 4016583449798933646, guid: e87409eab68564f4190410cbf5a08b09,
        type: 3}
      propertyPath: m_LocalEulerAnglesHint.z
      value: 0
      objectReference: {fileID: 0}
    - target: {fileID: 4016583449798933647, guid: e87409eab68564f4190410cbf5a08b09,
        type: 3}
      propertyPath: winLabel
      value: 
      objectReference: {fileID: 2013636588}
    - target: {fileID: 4016583449798933647, guid: e87409eab68564f4190410cbf5a08b09,
        type: 3}
      propertyPath: delayInSeconds
      value: 2
      objectReference: {fileID: 0}
    m_RemovedComponents: []
  m_SourcePrefab: {fileID: 100100000, guid: e87409eab68564f4190410cbf5a08b09, type: 3}
--- !u!1001 &5847864380398248729
PrefabInstance:
  m_ObjectHideFlags: 0
  serializedVersion: 2
  m_Modification:
    m_TransformParent: {fileID: 0}
    m_Modifications:
    - target: {fileID: 5847864379953327293, guid: 665f957a9f745bc478050c53b60db75a,
        type: 3}
      propertyPath: minTimeBetweenTwoSpawns
      value: 6
      objectReference: {fileID: 0}
    - target: {fileID: 5847864379953327293, guid: 665f957a9f745bc478050c53b60db75a,
        type: 3}
      propertyPath: maxTimeBetweenTwoSpawns
      value: 7
      objectReference: {fileID: 0}
    - target: {fileID: 5847864380186688357, guid: 665f957a9f745bc478050c53b60db75a,
        type: 3}
      propertyPath: minTimeBetweenTwoSpawns
      value: 4
      objectReference: {fileID: 0}
    - target: {fileID: 5847864380186688357, guid: 665f957a9f745bc478050c53b60db75a,
        type: 3}
      propertyPath: maxTimeBetweenTwoSpawns
      value: 7
      objectReference: {fileID: 0}
    - target: {fileID: 5847864380273219716, guid: 665f957a9f745bc478050c53b60db75a,
        type: 3}
      propertyPath: minTimeBetweenTwoSpawns
      value: 4
      objectReference: {fileID: 0}
    - target: {fileID: 5847864380273219716, guid: 665f957a9f745bc478050c53b60db75a,
        type: 3}
      propertyPath: maxTimeBetweenTwoSpawns
      value: 7
      objectReference: {fileID: 0}
    - target: {fileID: 5847864380322330145, guid: 665f957a9f745bc478050c53b60db75a,
        type: 3}
      propertyPath: m_LocalPosition.x
      value: 0
      objectReference: {fileID: 0}
    - target: {fileID: 5847864380322330145, guid: 665f957a9f745bc478050c53b60db75a,
        type: 3}
      propertyPath: m_LocalPosition.y
      value: 0
      objectReference: {fileID: 0}
    - target: {fileID: 5847864380322330145, guid: 665f957a9f745bc478050c53b60db75a,
        type: 3}
      propertyPath: m_LocalPosition.z
      value: 0
      objectReference: {fileID: 0}
    - target: {fileID: 5847864380322330145, guid: 665f957a9f745bc478050c53b60db75a,
        type: 3}
      propertyPath: m_LocalRotation.x
      value: 0
      objectReference: {fileID: 0}
    - target: {fileID: 5847864380322330145, guid: 665f957a9f745bc478050c53b60db75a,
        type: 3}
      propertyPath: m_LocalRotation.y
      value: 0
      objectReference: {fileID: 0}
    - target: {fileID: 5847864380322330145, guid: 665f957a9f745bc478050c53b60db75a,
        type: 3}
      propertyPath: m_LocalRotation.z
      value: 0
      objectReference: {fileID: 0}
    - target: {fileID: 5847864380322330145, guid: 665f957a9f745bc478050c53b60db75a,
        type: 3}
      propertyPath: m_LocalRotation.w
      value: 1
      objectReference: {fileID: 0}
    - target: {fileID: 5847864380322330145, guid: 665f957a9f745bc478050c53b60db75a,
        type: 3}
      propertyPath: m_RootOrder
      value: 5
      objectReference: {fileID: 0}
    - target: {fileID: 5847864380322330145, guid: 665f957a9f745bc478050c53b60db75a,
        type: 3}
      propertyPath: m_LocalEulerAnglesHint.x
      value: 0
      objectReference: {fileID: 0}
    - target: {fileID: 5847864380322330145, guid: 665f957a9f745bc478050c53b60db75a,
        type: 3}
      propertyPath: m_LocalEulerAnglesHint.y
      value: 0
      objectReference: {fileID: 0}
    - target: {fileID: 5847864380322330145, guid: 665f957a9f745bc478050c53b60db75a,
        type: 3}
      propertyPath: m_LocalEulerAnglesHint.z
      value: 0
      objectReference: {fileID: 0}
    - target: {fileID: 5847864380322330158, guid: 665f957a9f745bc478050c53b60db75a,
        type: 3}
      propertyPath: m_Name
      value: Spawners
      objectReference: {fileID: 0}
    - target: {fileID: 5847864381602768331, guid: 665f957a9f745bc478050c53b60db75a,
        type: 3}
      propertyPath: minTimeBetweenTwoSpawns
      value: 5
      objectReference: {fileID: 0}
    - target: {fileID: 5847864381602768331, guid: 665f957a9f745bc478050c53b60db75a,
        type: 3}
      propertyPath: maxTimeBetweenTwoSpawns
      value: 7
      objectReference: {fileID: 0}
    - target: {fileID: 7830154178220976753, guid: 665f957a9f745bc478050c53b60db75a,
        type: 3}
      propertyPath: minTimeBetweenTwoSpawns
      value: 2
      objectReference: {fileID: 0}
    - target: {fileID: 7830154178220976753, guid: 665f957a9f745bc478050c53b60db75a,
        type: 3}
      propertyPath: maxTimeBetweenTwoSpawns
      value: 8
      objectReference: {fileID: 0}
    m_RemovedComponents: []
  m_SourcePrefab: {fileID: 100100000, guid: 665f957a9f745bc478050c53b60db75a, type: 3}
--- !u!1001 &6215147628313651840
PrefabInstance:
  m_ObjectHideFlags: 0
  serializedVersion: 2
  m_Modification:
    m_TransformParent: {fileID: 0}
    m_Modifications:
    - target: {fileID: 6215147629429772624, guid: 0c6c9e0add687a643a3829d8841e5be3,
        type: 3}
      propertyPath: m_Name
      value: BaseCollider
      objectReference: {fileID: 0}
    - target: {fileID: 6215147629429772627, guid: 0c6c9e0add687a643a3829d8841e5be3,
        type: 3}
      propertyPath: m_LocalPosition.x
      value: -1
      objectReference: {fileID: 0}
    - target: {fileID: 6215147629429772627, guid: 0c6c9e0add687a643a3829d8841e5be3,
        type: 3}
      propertyPath: m_LocalPosition.y
      value: 3
      objectReference: {fileID: 0}
    - target: {fileID: 6215147629429772627, guid: 0c6c9e0add687a643a3829d8841e5be3,
        type: 3}
      propertyPath: m_LocalPosition.z
      value: 0
      objectReference: {fileID: 0}
    - target: {fileID: 6215147629429772627, guid: 0c6c9e0add687a643a3829d8841e5be3,
        type: 3}
      propertyPath: m_LocalRotation.x
      value: 0
      objectReference: {fileID: 0}
    - target: {fileID: 6215147629429772627, guid: 0c6c9e0add687a643a3829d8841e5be3,
        type: 3}
      propertyPath: m_LocalRotation.y
      value: 0
      objectReference: {fileID: 0}
    - target: {fileID: 6215147629429772627, guid: 0c6c9e0add687a643a3829d8841e5be3,
        type: 3}
      propertyPath: m_LocalRotation.z
      value: 0
      objectReference: {fileID: 0}
    - target: {fileID: 6215147629429772627, guid: 0c6c9e0add687a643a3829d8841e5be3,
        type: 3}
      propertyPath: m_LocalRotation.w
      value: 1
      objectReference: {fileID: 0}
    - target: {fileID: 6215147629429772627, guid: 0c6c9e0add687a643a3829d8841e5be3,
        type: 3}
      propertyPath: m_RootOrder
      value: 8
      objectReference: {fileID: 0}
    - target: {fileID: 6215147629429772627, guid: 0c6c9e0add687a643a3829d8841e5be3,
        type: 3}
      propertyPath: m_LocalEulerAnglesHint.x
      value: 0
      objectReference: {fileID: 0}
    - target: {fileID: 6215147629429772627, guid: 0c6c9e0add687a643a3829d8841e5be3,
        type: 3}
      propertyPath: m_LocalEulerAnglesHint.y
      value: 0
      objectReference: {fileID: 0}
    - target: {fileID: 6215147629429772627, guid: 0c6c9e0add687a643a3829d8841e5be3,
        type: 3}
      propertyPath: m_LocalEulerAnglesHint.z
      value: 0
      objectReference: {fileID: 0}
    m_RemovedComponents: []
  m_SourcePrefab: {fileID: 100100000, guid: 0c6c9e0add687a643a3829d8841e5be3, type: 3}
--- !u!1001 &6882424725816717430
PrefabInstance:
  m_ObjectHideFlags: 0
  serializedVersion: 2
  m_Modification:
    m_TransformParent: {fileID: 0}
    m_Modifications:
    - target: {fileID: 6882424725084968250, guid: 912d548994b710044bf98a8819fe72a8,
        type: 3}
      propertyPath: m_LocalPosition.x
      value: 4.970389
      objectReference: {fileID: 0}
    - target: {fileID: 6882424725084968250, guid: 912d548994b710044bf98a8819fe72a8,
        type: 3}
      propertyPath: m_LocalPosition.y
      value: 2.5960276
      objectReference: {fileID: 0}
    - target: {fileID: 6882424725084968250, guid: 912d548994b710044bf98a8819fe72a8,
        type: 3}
      propertyPath: m_LocalPosition.z
      value: 1
      objectReference: {fileID: 0}
    - target: {fileID: 6882424725084968250, guid: 912d548994b710044bf98a8819fe72a8,
        type: 3}
      propertyPath: m_LocalRotation.x
      value: 0
      objectReference: {fileID: 0}
    - target: {fileID: 6882424725084968250, guid: 912d548994b710044bf98a8819fe72a8,
        type: 3}
      propertyPath: m_LocalRotation.y
      value: 0
      objectReference: {fileID: 0}
    - target: {fileID: 6882424725084968250, guid: 912d548994b710044bf98a8819fe72a8,
        type: 3}
      propertyPath: m_LocalRotation.z
      value: 0
      objectReference: {fileID: 0}
    - target: {fileID: 6882424725084968250, guid: 912d548994b710044bf98a8819fe72a8,
        type: 3}
      propertyPath: m_LocalRotation.w
      value: 1
      objectReference: {fileID: 0}
    - target: {fileID: 6882424725084968250, guid: 912d548994b710044bf98a8819fe72a8,
        type: 3}
      propertyPath: m_RootOrder
      value: 6
      objectReference: {fileID: 0}
    - target: {fileID: 6882424725084968250, guid: 912d548994b710044bf98a8819fe72a8,
        type: 3}
      propertyPath: m_LocalEulerAnglesHint.x
      value: 0
      objectReference: {fileID: 0}
    - target: {fileID: 6882424725084968250, guid: 912d548994b710044bf98a8819fe72a8,
        type: 3}
      propertyPath: m_LocalEulerAnglesHint.y
      value: 0
      objectReference: {fileID: 0}
    - target: {fileID: 6882424725084968250, guid: 912d548994b710044bf98a8819fe72a8,
        type: 3}
      propertyPath: m_LocalEulerAnglesHint.z
      value: 0
      objectReference: {fileID: 0}
    - target: {fileID: 6882424725084968255, guid: 912d548994b710044bf98a8819fe72a8,
        type: 3}
      propertyPath: m_Name
      value: Core Game
      objectReference: {fileID: 0}
    m_RemovedComponents: []
  m_SourcePrefab: {fileID: 100100000, guid: 912d548994b710044bf98a8819fe72a8, type: 3}
--- !u!1001 &8724678064430340831
PrefabInstance:
  m_ObjectHideFlags: 0
  serializedVersion: 2
  m_Modification:
    m_TransformParent: {fileID: 0}
    m_Modifications:
    - target: {fileID: 1450702935, guid: b21e7ab46beb4684594bfa48db1ced4b, type: 3}
      propertyPath: stars
      value: 500
      objectReference: {fileID: 0}
    - target: {fileID: 1722286881, guid: b21e7ab46beb4684594bfa48db1ced4b, type: 3}
      propertyPath: m_RootOrder
      value: 4
      objectReference: {fileID: 0}
    - target: {fileID: 1838059112, guid: b21e7ab46beb4684594bfa48db1ced4b, type: 3}
      propertyPath: m_RootOrder
      value: 5
      objectReference: {fileID: 0}
    - target: {fileID: 1838059114, guid: b21e7ab46beb4684594bfa48db1ced4b, type: 3}
      propertyPath: levelTime
      value: 20
      objectReference: {fileID: 0}
    - target: {fileID: 8724678062925640096, guid: b21e7ab46beb4684594bfa48db1ced4b,
        type: 3}
      propertyPath: m_LocalPosition.x
      value: 0
      objectReference: {fileID: 0}
    - target: {fileID: 8724678062925640096, guid: b21e7ab46beb4684594bfa48db1ced4b,
        type: 3}
      propertyPath: m_LocalPosition.y
      value: 0
      objectReference: {fileID: 0}
    - target: {fileID: 8724678062925640096, guid: b21e7ab46beb4684594bfa48db1ced4b,
        type: 3}
      propertyPath: m_LocalPosition.z
      value: 0
      objectReference: {fileID: 0}
    - target: {fileID: 8724678062925640096, guid: b21e7ab46beb4684594bfa48db1ced4b,
        type: 3}
      propertyPath: m_LocalRotation.x
      value: 0
      objectReference: {fileID: 0}
    - target: {fileID: 8724678062925640096, guid: b21e7ab46beb4684594bfa48db1ced4b,
        type: 3}
      propertyPath: m_LocalRotation.y
      value: 0
      objectReference: {fileID: 0}
    - target: {fileID: 8724678062925640096, guid: b21e7ab46beb4684594bfa48db1ced4b,
        type: 3}
      propertyPath: m_LocalRotation.z
      value: 0
      objectReference: {fileID: 0}
    - target: {fileID: 8724678062925640096, guid: b21e7ab46beb4684594bfa48db1ced4b,
        type: 3}
      propertyPath: m_LocalRotation.w
      value: 1
      objectReference: {fileID: 0}
    - target: {fileID: 8724678062925640096, guid: b21e7ab46beb4684594bfa48db1ced4b,
        type: 3}
      propertyPath: m_RootOrder
      value: 1
      objectReference: {fileID: 0}
    - target: {fileID: 8724678062925640096, guid: b21e7ab46beb4684594bfa48db1ced4b,
        type: 3}
      propertyPath: m_LocalEulerAnglesHint.x
      value: 0
      objectReference: {fileID: 0}
    - target: {fileID: 8724678062925640096, guid: b21e7ab46beb4684594bfa48db1ced4b,
        type: 3}
      propertyPath: m_LocalEulerAnglesHint.y
      value: 0
      objectReference: {fileID: 0}
    - target: {fileID: 8724678062925640096, guid: b21e7ab46beb4684594bfa48db1ced4b,
        type: 3}
      propertyPath: m_LocalEulerAnglesHint.z
      value: 0
      objectReference: {fileID: 0}
    - target: {fileID: 8724678062925640096, guid: b21e7ab46beb4684594bfa48db1ced4b,
        type: 3}
      propertyPath: m_AnchoredPosition.x
      value: 5
      objectReference: {fileID: 0}
    - target: {fileID: 8724678062925640096, guid: b21e7ab46beb4684594bfa48db1ced4b,
        type: 3}
      propertyPath: m_AnchoredPosition.y
      value: 3
      objectReference: {fileID: 0}
    - target: {fileID: 8724678062925640096, guid: b21e7ab46beb4684594bfa48db1ced4b,
        type: 3}
      propertyPath: m_SizeDelta.x
      value: 1920
      objectReference: {fileID: 0}
    - target: {fileID: 8724678062925640096, guid: b21e7ab46beb4684594bfa48db1ced4b,
        type: 3}
      propertyPath: m_SizeDelta.y
      value: 1080
      objectReference: {fileID: 0}
    - target: {fileID: 8724678062925640096, guid: b21e7ab46beb4684594bfa48db1ced4b,
        type: 3}
      propertyPath: m_AnchorMin.x
      value: 0
      objectReference: {fileID: 0}
    - target: {fileID: 8724678062925640096, guid: b21e7ab46beb4684594bfa48db1ced4b,
        type: 3}
      propertyPath: m_AnchorMin.y
      value: 0
      objectReference: {fileID: 0}
    - target: {fileID: 8724678062925640096, guid: b21e7ab46beb4684594bfa48db1ced4b,
        type: 3}
      propertyPath: m_AnchorMax.x
      value: 0
      objectReference: {fileID: 0}
    - target: {fileID: 8724678062925640096, guid: b21e7ab46beb4684594bfa48db1ced4b,
        type: 3}
      propertyPath: m_AnchorMax.y
      value: 0
      objectReference: {fileID: 0}
    - target: {fileID: 8724678062925640096, guid: b21e7ab46beb4684594bfa48db1ced4b,
        type: 3}
      propertyPath: m_Pivot.x
      value: 0.5
      objectReference: {fileID: 0}
    - target: {fileID: 8724678062925640096, guid: b21e7ab46beb4684594bfa48db1ced4b,
        type: 3}
      propertyPath: m_Pivot.y
      value: 0.5
      objectReference: {fileID: 0}
    - target: {fileID: 8724678062925640100, guid: b21e7ab46beb4684594bfa48db1ced4b,
        type: 3}
      propertyPath: m_Name
      value: Main Canvas
      objectReference: {fileID: 0}
    m_RemovedComponents: []
  m_SourcePrefab: {fileID: 100100000, guid: b21e7ab46beb4684594bfa48db1ced4b, type: 3}
--- !u!1001 &8819862488487663694
PrefabInstance:
  m_ObjectHideFlags: 0
  serializedVersion: 2
  m_Modification:
    m_TransformParent: {fileID: 0}
    m_Modifications:
    - target: {fileID: 1762063637117199219, guid: ae5bb8778ab176a46a86fd0a14893246,
        type: 3}
      propertyPath: m_Name
      value: Level Complete
      objectReference: {fileID: 0}
    - target: {fileID: 3460185465848917568, guid: ae5bb8778ab176a46a86fd0a14893246,
        type: 3}
      propertyPath: m_LocalPosition.x
      value: 0
      objectReference: {fileID: 0}
    - target: {fileID: 3460185465848917568, guid: ae5bb8778ab176a46a86fd0a14893246,
        type: 3}
      propertyPath: m_LocalPosition.y
      value: 0
      objectReference: {fileID: 0}
    - target: {fileID: 3460185465848917568, guid: ae5bb8778ab176a46a86fd0a14893246,
        type: 3}
      propertyPath: m_LocalPosition.z
      value: 0
      objectReference: {fileID: 0}
    - target: {fileID: 3460185465848917568, guid: ae5bb8778ab176a46a86fd0a14893246,
        type: 3}
      propertyPath: m_LocalRotation.x
      value: 0
      objectReference: {fileID: 0}
    - target: {fileID: 3460185465848917568, guid: ae5bb8778ab176a46a86fd0a14893246,
        type: 3}
      propertyPath: m_LocalRotation.y
      value: 0
      objectReference: {fileID: 0}
    - target: {fileID: 3460185465848917568, guid: ae5bb8778ab176a46a86fd0a14893246,
        type: 3}
      propertyPath: m_LocalRotation.z
      value: 0
      objectReference: {fileID: 0}
    - target: {fileID: 3460185465848917568, guid: ae5bb8778ab176a46a86fd0a14893246,
        type: 3}
      propertyPath: m_LocalRotation.w
      value: 1
      objectReference: {fileID: 0}
    - target: {fileID: 3460185465848917568, guid: ae5bb8778ab176a46a86fd0a14893246,
        type: 3}
      propertyPath: m_RootOrder
      value: 2
      objectReference: {fileID: 0}
    - target: {fileID: 3460185465848917568, guid: ae5bb8778ab176a46a86fd0a14893246,
        type: 3}
      propertyPath: m_LocalEulerAnglesHint.x
      value: 0
      objectReference: {fileID: 0}
    - target: {fileID: 3460185465848917568, guid: ae5bb8778ab176a46a86fd0a14893246,
        type: 3}
      propertyPath: m_LocalEulerAnglesHint.y
      value: 0
      objectReference: {fileID: 0}
    - target: {fileID: 3460185465848917568, guid: ae5bb8778ab176a46a86fd0a14893246,
        type: 3}
      propertyPath: m_LocalEulerAnglesHint.z
      value: 0
      objectReference: {fileID: 0}
    - target: {fileID: 3460185465848917568, guid: ae5bb8778ab176a46a86fd0a14893246,
        type: 3}
      propertyPath: m_AnchoredPosition.x
      value: 5
      objectReference: {fileID: 0}
    - target: {fileID: 3460185465848917568, guid: ae5bb8778ab176a46a86fd0a14893246,
        type: 3}
      propertyPath: m_AnchoredPosition.y
      value: 3
      objectReference: {fileID: 0}
    - target: {fileID: 3460185465848917568, guid: ae5bb8778ab176a46a86fd0a14893246,
        type: 3}
      propertyPath: m_SizeDelta.x
      value: 1920
      objectReference: {fileID: 0}
    - target: {fileID: 3460185465848917568, guid: ae5bb8778ab176a46a86fd0a14893246,
        type: 3}
      propertyPath: m_SizeDelta.y
      value: 1080
      objectReference: {fileID: 0}
    - target: {fileID: 3460185465848917568, guid: ae5bb8778ab176a46a86fd0a14893246,
        type: 3}
      propertyPath: m_AnchorMin.x
      value: 0
      objectReference: {fileID: 0}
    - target: {fileID: 3460185465848917568, guid: ae5bb8778ab176a46a86fd0a14893246,
        type: 3}
      propertyPath: m_AnchorMin.y
      value: 0
      objectReference: {fileID: 0}
    - target: {fileID: 3460185465848917568, guid: ae5bb8778ab176a46a86fd0a14893246,
        type: 3}
      propertyPath: m_AnchorMax.x
      value: 0
      objectReference: {fileID: 0}
    - target: {fileID: 3460185465848917568, guid: ae5bb8778ab176a46a86fd0a14893246,
        type: 3}
      propertyPath: m_AnchorMax.y
      value: 0
      objectReference: {fileID: 0}
    - target: {fileID: 3460185465848917568, guid: ae5bb8778ab176a46a86fd0a14893246,
        type: 3}
      propertyPath: m_Pivot.x
      value: 0.5
      objectReference: {fileID: 0}
    - target: {fileID: 3460185465848917568, guid: ae5bb8778ab176a46a86fd0a14893246,
        type: 3}
      propertyPath: m_Pivot.y
      value: 0.5
      objectReference: {fileID: 0}
    m_RemovedComponents: []
  m_SourcePrefab: {fileID: 100100000, guid: ae5bb8778ab176a46a86fd0a14893246, type: 3}
